# This file uses centimeters as units for non-parametric coordinates.

g default
v 0.014284 13.920982 0.011564
v 1.767721 13.359950 0.011564
v -1.060802 13.345565 -1.376290
v -0.710984 13.359950 1.537013
v 2.500858 12.209135 -1.376290
v 2.182941 12.452190 1.537013
v -2.581432 12.223514 -1.204002
v -0.345992 12.223514 -2.729451
v 0.801363 12.452190 2.479794
v -2.270600 12.209135 1.713719
v 3.630888 10.179323 -1.204002
v 1.577470 11.648106 -2.729451
v 3.341942 10.370346 1.713719
v -2.806423 10.407998 -2.450686
v -3.193984 11.648106 0.360555
v -1.424847 10.407998 -3.393465
v 0.543365 10.370346 3.623449
v -2.522146 10.179323 2.828784
v 3.405896 8.363808 -2.450686
v 4.056751 9.248290 0.360555
v 2.136812 9.271565 -3.393466
v 3.090395 8.340535 2.828784
v -3.649738 7.970531 -2.164773
v -4.016219 9.271565 0.639322
v -0.851164 7.970531 -4.074506
v 1.673396 8.340535 3.795736
v -1.220530 9.248290 3.795736
v -3.601000 8.363808 2.164773
v 3.751043 5.570719 -2.333802
v 4.447460 6.525019 0.689242
v 1.030300 7.409507 -4.074506
v 3.803586 5.963993 2.333802
v -3.090395 5.593991 -2.828784
v -4.246978 7.409507 -0.639322
v -1.673396 5.593991 -3.795736
v 0.786495 5.963993 4.392650
v -0.979619 6.525019 4.392650
v -3.540706 5.570719 2.642040
v 2.587951 3.755204 -3.049661
v 4.198683 4.662961 -0.689242
v 1.184701 4.686236 -4.092113
v 2.894424 3.526530 2.642040
v -3.471757 3.564182 -1.847529
v -4.242380 4.686236 -0.388708
v -0.454663 3.564182 -3.906374
v 1.404973 3.526530 3.658433
v -2.172529 4.662962 3.658434
v -3.783264 3.755204 1.298013
v 2.316763 1.725393 -1.847529
v 3.312247 2.286425 -0.388708
v 2.651865 1.711014 1.298013
v -2.222260 1.482337 -1.657026
v -0.732806 1.482337 -2.673420
v 0.241879 1.711014 2.942571
v -1.569512 2.286425 2.942571
v -2.565001 1.725393 1.483753
v 0.635370 0.574578 -1.657026
v 1.012502 0.588963 1.483753
v -1.774619 0.574578 -0.012467
v -0.004129 0.013547 -0.012467
v 0.970224 13.814774 -0.068116
v 2.163510 12.869002 -0.692270
v 2.033947 12.145028 -2.081782
v 0.746310 12.007956 -2.769082
v -0.647149 12.979904 -2.081782
v -0.594032 13.730049 -0.692270
v -1.868542 12.979904 -1.248309
v -2.927870 12.007956 -0.427847
v -2.757311 12.145028 1.021740
v -1.510671 12.869002 1.648964
v -0.494434 13.814774 0.765356
v -0.007985 13.012272 2.113940
v 1.564171 12.516283 2.113940
v 2.092165 13.012272 0.765356
v 2.800786 11.475792 1.648964
v 3.773783 9.991674 1.021740
v 3.897863 9.753689 -0.427847
v 3.155887 11.342522 -1.248309
v -0.846056 11.374886 -3.183918
v -2.190380 10.382934 -3.031605
v -2.822311 11.374886 -1.835333
v -2.390233 11.342522 2.370323
v -1.896741 9.753689 3.360348
v -0.501690 9.991674 3.773293
v 0.680360 11.475792 3.095928
v 3.650381 9.241524 -1.835333
v 2.834051 8.745548 -3.031605
v 1.835043 10.540020 -3.183918
v 1.189836 9.495695 3.773293
v 2.414713 8.360476 3.360348
v 3.245785 9.495695 2.370323
v -3.273186 9.221529 -2.341232
v -4.045885 7.838315 -1.420497
v -4.189814 8.360476 0.000000
v -3.711079 10.540020 0.434714
v 1.604782 8.360476 -3.788196
v 0.229578 7.838315 -4.172049
v -1.152762 9.221529 -3.788196
v -3.933459 8.745548 1.420497
v -3.117133 9.241524 2.616770
v 4.268269 7.890676 0.434714
v 4.385832 5.574050 0.000000
v 4.109461 5.188979 -1.531412
v 3.552545 6.967262 -2.341232
v 3.549397 7.088166 2.821092
v 4.230665 6.096210 1.531412
v -1.358009 6.846361 -4.019739
v -2.414713 5.574051 -3.360348
v -3.413958 6.846361 -2.616770
v -1.228591 7.890676 4.019739
v -0.116375 6.096210 4.497809
v 1.332915 7.088166 4.333607
v -3.552545 6.967262 2.341232
v -2.924209 5.188979 3.268318
v -1.598957 5.574050 4.083984
v 3.229394 4.693002 -2.821092
v 1.913712 4.180838 -3.622730
v 1.228591 6.043849 -4.019739
v 1.111643 4.712997 4.083984
v 2.230280 3.551594 3.268318
v 3.397632 4.712997 2.524040
v -3.368093 4.438830 -2.555402
v -3.937317 3.942852 -1.101519
v -4.268269 6.043849 -0.434714
v -4.071086 4.180838 0.461254
v -3.804279 4.693002 1.978639
v 0.409733 3.942852 -4.067917
v -1.151611 4.438830 -4.067918
v 3.869718 3.394509 -0.468657
v 2.841477 1.789499 -1.101519
v 2.445737 2.592005 -2.555402
v 2.911553 2.559643 1.978639
v 3.025353 1.926573 0.461254
v -0.602355 2.458735 -3.337664
v -1.555174 1.418245 -2.279000
v -2.888347 2.458735 -1.777717
v -1.847197 3.394509 3.432524
v -0.673454 1.926573 2.985296
v 0.780988 2.559643 3.432524
v -3.271175 2.592005 1.345779
v -2.061631 1.789499 2.244331
v 1.497498 1.065526 -1.777718
v 0.002899 0.922257 -2.279000
v 0.566551 0.954625 2.244331
v 1.883312 0.954625 1.345779
v -2.124396 0.922257 -0.825116
v -2.201312 1.065526 0.746323
v 0.509286 0.204481 0.746323
v 0.401911 0.119756 -0.825116
v -0.914852 0.119756 0.073435
v 0.902744 13.270258 -1.478675
v -1.783307 13.270258 0.188268
v 0.944742 13.609150 1.206212
v 3.146627 11.665231 0.188268
v -1.767852 12.108853 -2.412423
v -1.049153 11.665231 2.885438
v 2.856289 10.608555 -2.412423
v 2.090636 10.673279 2.885438
v -3.690841 10.060215 -0.985784
v 0.504933 10.060215 -3.682953
v -3.364999 10.608555 1.666943
v 4.135606 7.463240 -0.985784
v 3.966670 8.181026 1.666943
v -2.426982 8.076305 -3.378331
v 0.272050 8.181026 4.188127
v -2.502954 7.463240 3.378331
v 2.502954 6.471286 -3.378331
v 2.485356 5.858222 3.642116
v -3.966670 5.753500 -1.666943
v -4.135606 6.471286 0.985784
v -0.272050 5.753500 -4.188127
v 3.496614 3.325974 -1.797101
v 3.847898 3.874311 1.062756
v -2.122747 3.261249 -3.110738
v -0.413230 3.874312 3.970525
v -2.948184 3.325974 2.600789
v 0.999944 2.269296 -3.110738
v 1.774760 1.825673 2.600790
v -3.261192 2.269296 -0.202968
v 1.791422 0.664272 -0.202968
v -0.887380 0.325379 -1.300394
v -0.842103 0.664272 1.594132
vt 0.638786 0.396690
vt 0.669627 0.368766
vt 0.706402 0.387750
vt 0.677664 0.459555
vt 0.666168 0.317768
vt 0.608691 0.328675
vt 0.732428 0.301712
vt 0.742606 0.403739
vt 0.744673 0.447433
vt 0.609529 0.452439
vt 0.606509 0.410914
vt 0.575881 0.378059
vt 0.615013 0.250361
vt 0.654296 0.266469
vt 0.686446 0.230747
vt 0.772055 0.368511
vt 0.798973 0.419862
vt 0.750643 0.479986
vt 0.718737 0.504773
vt 0.551854 0.422294
vt 0.650746 0.510155
vt 0.614751 0.489116
vt 0.554496 0.334667
vt 0.554855 0.287623
vt 0.636873 0.166898
vt 0.577585 0.245395
vt 0.718595 0.196523
vt 0.757878 0.216282
vt 0.795653 0.283081
vt 0.800758 0.335541
vt 0.827855 0.349881
vt 0.783551 0.477578
vt 0.685906 0.523215
vt 0.587841 0.491524
vt 0.529702 0.335416
vt 0.516559 0.241422
vt 0.568711 0.198403
vt 0.708306 0.148875
vt 0.770272 0.146301
vt 0.795306 0.230622
vt 0.844028 0.264451
vt 0.844734 0.369640
vt 0.834960 0.417288
vt 0.813761 0.458912
vt 0.509393 0.334667
vt 0.484304 0.287623
vt 0.563207 0.153834
vt 0.594152 0.117514
vt 0.664930 0.093734
vt 0.704577 0.107251
vt 0.533994 0.154776
vt 0.737826 0.088585
vt 0.818036 0.197652
vt 0.863147 0.335416
vt 0.565131 0.089944
vt 0.625900 0.085637
vt 0.695913 0.046317
vt 0.772624 0.086177
vt 0.805643 0.118730
vt 0.828697 0.162424
vt 0.855428 0.178413
vt 0.623671 0.057224
vt 0.151613 0.473824
vt 0.121754 0.436042
vt 0.127065 0.389678
vt 0.192836 0.422451
vt 0.093565 0.435062
vt 0.123610 0.502505
vt 0.076741 0.344927
vt 0.135627 0.340794
vt 0.171742 0.335627
vt 0.219909 0.498563
vt 0.182247 0.506986
vt 0.180098 0.536543
vt 0.113695 0.296865
vt 0.159784 0.254159
vt 0.209648 0.318871
vt 0.240670 0.356031
vt 0.249805 0.547889
vt 0.261764 0.441200
vt 0.258166 0.484501
vt 0.077614 0.247147
vt 0.103407 0.247926
vt 0.116673 0.202786
vt 0.219576 0.265505
vt 0.288504 0.282208
vt 0.271692 0.391634
vt 0.290249 0.503919
vt 0.321556 0.443879
vt 0.089726 0.156771
vt 0.045617 0.296865
vt 0.056487 0.247926
vt 0.151021 0.168608
vt 0.187220 0.183405
vt 0.221809 0.212454
vt 0.263052 0.192705
vt 0.309598 0.371079
vt 0.323826 0.506424
vt 0.320684 0.532209
vt 0.355687 0.472560
vt 0.043280 0.202786
vt 0.154409 0.125411
vt 0.230821 0.118008
vt 0.303654 0.176073
vt 0.336681 0.212719
vt 0.354275 0.301589
vt 0.345713 0.356161
vt 0.367645 0.390460
vt 0.377933 0.427106
vt 0.130085 0.084752
vt 0.160265 0.087257
vt 0.200632 0.065371
vt 0.305972 0.130619
vt 0.366870 0.159300
vt 0.368872 0.247017
vt 0.404599 0.320970
vt 0.403727 0.410473
vt 0.240065 0.051784
vt 0.276884 0.070969
vt 0.312667 0.096754
vt 0.349573 0.099260
vt 0.399261 0.232100
vt 0.407229 0.161978
vt 0.418191 0.211545
vt 0.438840 0.247147
vt 0.453818 0.284308
vt 0.435723 0.337673
vt 0.430882 0.781799
vt 0.466510 0.778239
vt 0.484191 0.809683
vt 0.427868 0.844815
vt 0.481004 0.744564
vt 0.429744 0.724869
vt 0.499262 0.840241
vt 0.478403 0.871758
vt 0.361000 0.809683
vt 0.388176 0.778239
vt 0.365449 0.744564
vt 0.457416 0.684317
vt 0.485059 0.710091
vt 0.458010 0.900693
vt 0.420879 0.902463
vt 0.307870 0.770345
vt 0.358627 0.871758
vt 0.340147 0.840241
vt 0.355775 0.710091
vt 0.387181 0.684317
vt 0.423338 0.667973
vt 0.372081 0.900693
vt 0.304062 0.834523
vt 0.320050 0.705089
vt 0.308560 0.886529
vt 0.340668 0.649851
vt 0.417933 0.640447
vt 0.480936 0.649851
vt 0.349741 0.920996
vt 0.410095 0.943290
vt 0.286100 0.702197
vt 0.280756 0.672863
vt 0.365125 0.610186
vt 0.411812 0.616881
vt 0.886172 0.837956
vt 0.890677 0.820345
vt 0.924554 0.814977
vt 0.949940 0.856770
vt 0.871101 0.791657
vt 0.818529 0.824639
vt 0.920979 0.754727
vt 0.897489 0.900668
vt 0.869036 0.874808
vt 0.820725 0.877063
vt 0.815699 0.765480
vt 0.851128 0.762138
vt 0.866924 0.730524
vt 0.834460 0.929063
vt 0.973982 0.892001
vt 0.930423 0.912591
vt 0.773432 0.874808
vt 0.747459 0.837956
vt 0.816767 0.712035
vt 0.765653 0.791657
vt 0.782252 0.762138
vt 0.876006 0.698161
vt 0.909545 0.693466
vt 0.758776 0.900668
vt 0.700667 0.856770
vt 0.751504 0.820345
vt 0.768644 0.730524
vt 0.851401 0.673965
vt 0.890189 0.641608
vt 0.941416 0.690750
vt 0.961829 0.719772
vt 0.764838 0.698161
vt 0.790789 0.673965
vt 0.822781 0.658621
vt 0.827856 0.632780
vt 0.946433 0.663212
vt 0.768709 0.641608
vt 0.833601 0.610656
vt 0.867228 0.604372
vt 0.566456 0.616898
vt 0.540598 0.651685
vt 0.506396 0.652587
vt 0.525273 0.590490
vt 0.552753 0.694373
vt 0.626814 0.664198
vt 0.495825 0.735577
vt 0.614512 0.744139
vt 0.566228 0.739382
vt 0.543584 0.779828
vt 0.592101 0.819148
vt 0.675952 0.725353
vt 0.650286 0.759567
vt 0.659145 0.808702
vt 0.552805 0.866449
vt 0.529493 0.824887
vt 0.716080 0.793323
vt 0.686239 0.646935
vt 0.699722 0.692573
vt 0.657184 0.857547
vt 0.622561 0.884293
vt 0.583942 0.897917
vt 0.689754 0.875731
vt 0.637598 0.594121
vt 0.674732 0.607067
vt 0.648930 0.944506
vt 0.577344 0.937690
vt 0.509418 0.908816
vt 0.719877 0.891045
vt 0.713523 0.932895
vt 0.036376 0.945949
vt 0.030190 0.902015
vt 0.059521 0.885939
vt 0.099274 0.958137
vt 0.091236 0.866850
vt 0.124950 0.894928
vt 0.090858 0.815574
vt 0.031090 0.799430
vt 0.161239 0.826540
vt 0.102535 0.763993
vt 0.143022 0.747797
vt 0.204284 0.876195
vt 0.173964 0.909230
vt 0.073488 0.728076
vt 0.129099 0.663877
vt 0.185367 0.742803
vt 0.210995 0.785263
vt 0.180389 0.950982
vt 0.246532 0.920672
vt 0.226963 0.832565
vt 0.046587 0.693664
vt 0.061845 0.645755
vt 0.200617 0.695554
vt 0.265045 0.738809
vt 0.261732 0.833318
vt 0.185109 0.614222
vt 0.214374 0.650741
vt 0.253082 0.651688
vn 0.290170 0.948671 -0.125795
vn 0.605988 0.791608 -0.078329
vn 0.670048 0.706673 -0.227266
vn 0.255853 0.813882 -0.521665
vn 0.709461 0.613685 -0.346491
vn 0.516487 0.607696 -0.603280
vn 0.347677 0.494046 -0.796894
vn 0.168252 0.548323 -0.819166
vn 0.003125 0.570212 -0.821492
vn -0.086529 0.750440 -0.655251
vn -0.270415 0.866568 -0.419446
vn -0.173645 0.947247 -0.269389
vn -0.033468 0.995385 -0.089943
vn -0.579542 0.746195 -0.327605
vn -0.575040 0.815308 0.067845
vn -0.765004 0.572357 -0.295258
vn -0.829576 0.544057 -0.125719
vn -0.868801 0.494046 0.033221
vn -0.750057 0.607696 0.260999
vn -0.581295 0.613685 0.534310
vn -0.446311 0.706923 0.548696
vn -0.275684 0.790296 0.547202
vn -0.221434 0.942531 0.250206
vn -0.052087 0.685071 0.726612
vn 0.171260 0.565597 0.806703
vn 0.455628 0.575489 0.679129
vn 0.268459 0.866543 0.420753
vn 0.685816 0.561172 0.463402
vn 0.697839 0.684939 0.209473
vn 0.754583 0.463091 0.464921
vn 0.805505 0.373186 0.460320
vn 0.921617 0.318887 0.221209
vn 0.866604 0.495315 0.060506
vn 0.977344 0.209512 0.030044
vn 0.960035 0.258102 -0.108237
vn 0.920039 0.299359 -0.252810
vn 0.847253 0.453768 -0.276146
vn -0.129769 0.413819 -0.901063
vn -0.280495 0.286106 -0.916224
vn -0.541586 0.277117 -0.793657
vn -0.472120 0.546292 -0.691858
vn -0.740802 0.286315 -0.607648
vn -0.784394 0.419011 -0.457335
vn -0.566026 0.453768 0.688266
vn -0.570831 0.299359 0.764550
vn -0.450791 0.258104 0.854500
vn -0.242934 0.497442 0.832787
vn -0.312966 0.205495 0.927267
vn -0.122340 0.319927 0.939510
vn 0.123150 0.370867 0.920484
vn 0.144434 0.465504 0.873181
vn 0.894223 0.176277 -0.411451
vn 0.705127 0.344728 -0.619644
vn 0.813541 0.074376 -0.576732
vn 0.643323 0.118744 -0.756330
vn 0.445337 0.194204 -0.874048
vn 0.385765 0.336650 -0.858983
vn 0.524177 0.367684 0.768145
vn 0.297730 0.270651 0.915481
vn 0.441603 0.201545 0.874281
vn 0.553852 0.184324 0.811956
vn 0.661318 0.195563 0.724164
vn 0.735566 0.266738 0.622730
vn -0.785626 0.204480 -0.583934
vn -0.921783 0.287795 -0.259789
vn -0.821005 0.127088 -0.556596
vn -0.939045 0.117815 -0.322977
vn -0.994333 0.053582 -0.091817
vn -0.992343 0.123511 -0.000105
vn -0.976250 0.194203 0.096030
vn -0.940503 0.336650 0.046051
vn 0.089324 0.290322 -0.952751
vn 0.361685 0.123513 -0.924083
vn 0.266897 0.048389 -0.962509
vn 0.041371 0.117177 -0.992249
vn -0.198045 0.129202 -0.971640
vn -0.236692 0.208166 -0.949023
vn -0.834067 0.344727 0.430691
vn -0.938814 0.118743 0.323308
vn -0.833634 0.074376 0.547287
vn -0.709142 0.176278 0.682674
vn 0.991295 0.128669 0.027896
vn 0.997220 0.014371 0.073110
vn 0.995403 -0.094443 -0.015953
vn 0.962070 0.086531 -0.258718
vn 0.977016 -0.186790 -0.102712
vn 0.940062 -0.079148 -0.331692
vn 0.818965 0.002872 -0.573837
vn 0.816511 0.058908 -0.574317
vn 0.741605 0.068286 0.667352
vn 0.832366 -0.113578 0.542463
vn 0.945259 -0.086550 0.314635
vn 0.908261 0.165924 0.384099
vn -0.560557 0.104810 -0.821456
vn -0.333671 0.026353 -0.942321
vn -0.457797 -0.050489 -0.887622
vn -0.562084 -0.070988 -0.824028
vn -0.667397 -0.055464 -0.742634
vn -0.746513 0.021047 -0.665038
vn -0.327178 0.151722 0.932703
vn -0.289042 0.054204 0.955781
vn -0.059314 -0.060047 0.996432
vn 0.028267 0.194626 0.980470
vn 0.196373 -0.105210 0.974869
vn 0.341628 0.083928 0.936081
vn -0.835895 0.058291 0.545786
vn -0.829171 0.003196 0.558987
vn -0.651336 -0.069858 0.755567
vn -0.595995 0.097569 0.797038
vn -0.453825 -0.180697 0.872577
vn -0.383883 -0.080834 0.919837
vn 0.695538 -0.137054 -0.705296
vn 0.563713 -0.293912 -0.771909
vn 0.446885 -0.224638 -0.865928
vn 0.566734 0.015162 -0.823761
vn 0.289977 -0.115235 -0.950071
vn 0.299939 -0.003996 -0.953950
vn 0.562033 -0.079341 0.823301
vn 0.256407 -0.219580 0.941297
vn 0.296180 -0.306498 0.904619
vn 0.538255 -0.296845 0.788775
vn 0.734380 -0.306499 0.605594
vn 0.783035 -0.219579 0.581929
vn -0.736129 -0.194627 -0.648255
vn -0.911627 -0.051019 -0.407839
vn -0.809851 -0.374479 -0.451562
vn -0.926004 -0.302484 -0.225878
vn -0.986996 -0.153438 -0.047914
vn -0.998338 -0.025637 -0.051606
vn -0.966134 -0.236649 0.102870
vn -0.973307 0.003150 0.229486
vn -0.922587 -0.298203 0.244761
vn -0.907815 -0.143450 0.394073
vn -0.058964 -0.019286 -0.998074
vn 0.126649 -0.275282 -0.952985
vn -0.122359 -0.365208 -0.922850
vn -0.329303 -0.177157 -0.927456
vn 0.932335 -0.358737 -0.045386
vn 0.851144 -0.523937 -0.032309
vn 0.729278 -0.635135 -0.254473
vn 0.826570 -0.367516 -0.426280
vn 0.565911 -0.642041 -0.517230
vn 0.556546 -0.480662 -0.677659
vn 0.915721 -0.308592 0.257345
vn 0.773714 -0.444620 0.451309
vn 0.746930 -0.599984 0.286559
vn 0.810709 -0.572373 0.123044
vn -0.526172 -0.359366 -0.770713
vn -0.155093 -0.490352 -0.857614
vn -0.178824 -0.590258 -0.787158
vn -0.451287 -0.599456 -0.661054
vn -0.667721 -0.590392 -0.453416
vn -0.742061 -0.490352 -0.457056
vn -0.094214 -0.308593 0.946517
vn -0.382167 -0.358738 0.851619
vn -0.340390 -0.523936 0.780785
vn -0.180987 -0.572373 0.799770
vn -0.005474 -0.599984 0.799994
vn 0.138174 -0.444620 0.884998
vn -0.833920 -0.480662 0.271186
vn -0.687948 -0.642042 0.338394
vn -0.502835 -0.635135 0.586311
vn -0.698286 -0.367516 0.614271
vn 0.438578 -0.732312 -0.520930
vn 0.279876 -0.811605 -0.512803
vn 0.056776 -0.710951 -0.700946
vn 0.255730 -0.522751 -0.813224
vn 0.461684 -0.573678 0.676566
vn 0.089743 -0.769679 0.632093
vn 0.268848 -0.878921 0.393977
vn 0.555871 -0.769679 0.314009
vn -0.673574 -0.710871 -0.202385
vn -0.579300 -0.811758 0.073897
vn -0.644883 -0.732305 0.218761
vn -0.850522 -0.522687 -0.058395
vn 0.552922 -0.830676 -0.065234
vn 0.169079 -0.953798 0.248359
vn 0.054294 -0.995424 0.078632
vn 0.217912 -0.947921 -0.232293
vn -0.271787 -0.876133 -0.398149
vn -0.295402 -0.947996 0.118498
vn -0.262195 -0.830826 0.490900
s 1
g pSolid1
f 61/128/1 2/129/2 62/130/3 151/131/4
f 62/130/3 5/134/5 63/135/6 151/131/4
f 63/135/6 12/141/7 64/142/8 151/131/4
f 64/142/8 8/149/9 65/144/10 151/131/4
f 65/144/10 3/145/11 66/136/12 151/131/4
f 66/136/12 1/137/13 61/128/1 151/131/4
f 66/136/12 3/145/11 67/150/14 152/143/15
f 67/74/14 7/73/16 68/72/17 152/79/15
f 68/72/17 15/81/18 69/88/19 152/79/15
f 69/88/19 10/98/20 70/99/21 152/79/15
f 70/151/21 4/146/22 71/138/23 152/143/15
f 71/138/23 1/137/13 66/136/12 152/143/15
f 72/147/24 9/148/25 73/139/26 153/133/27
f 73/139/26 6/140/28 74/132/29 153/133/27
f 74/132/29 2/129/2 61/128/1 153/133/27
f 61/128/1 1/137/13 71/138/23 153/133/27
f 71/138/23 4/146/22 72/147/24 153/133/27
f 75/10/30 13/11/31 76/1/32 154/4/33
f 76/1/32 20/2/34 77/3/35 154/4/33
f 77/3/35 11/8/36 78/9/37 154/4/33
f 78/9/37 5/18/5 62/19/3 154/4/33
f 62/19/3 2/33/2 74/21/29 154/4/33
f 74/21/29 6/22/28 75/10/30 154/4/33
f 79/201/38 16/202/39 80/203/40 155/204/41
f 80/67/40 14/64/42 81/63/43 155/68/41
f 81/63/43 7/73/16 67/74/14 155/68/41
f 67/150/14 3/145/11 65/144/10 155/152/41
f 65/144/10 8/149/9 79/156/38 155/152/41
f 82/231/44 18/232/45 83/233/46 156/234/47
f 83/233/46 27/235/48 84/236/49 156/234/47
f 84/160/49 17/161/50 85/154/51 156/153/47
f 85/154/51 9/148/25 72/147/24 156/153/47
f 72/147/24 4/146/22 70/151/21 156/153/47
f 70/151/21 10/158/20 82/159/44 156/153/47
f 78/9/37 11/8/36 86/16/52 157/17/53
f 86/16/52 19/30/54 87/31/55 157/17/53
f 87/31/55 21/42/56 88/43/57 157/17/53
f 88/43/57 12/44/7 63/32/6 157/17/53
f 63/32/6 5/18/5 78/9/37 157/17/53
f 73/139/26 9/148/25 85/154/51 158/155/58
f 85/248/51 17/243/50 89/242/59 158/249/58
f 89/242/59 26/250/60 90/255/61 158/249/58
f 90/35/61 22/23/62 91/12/63 158/20/58
f 91/12/63 13/11/31 75/10/30 158/20/58
f 75/10/30 6/22/28 73/34/26 158/20/58
f 81/63/43 14/64/42 92/65/64 159/66/65
f 92/65/64 23/70/66 93/71/67 159/66/65
f 93/71/67 34/77/68 94/78/69 159/66/65
f 94/78/69 24/87/70 95/80/71 159/66/65
f 95/80/71 15/81/18 68/72/17 159/66/65
f 68/72/17 7/73/16 81/63/43 159/66/65
f 64/224/8 12/225/7 88/218/57 160/206/72
f 88/218/57 21/219/56 96/212/73 160/206/72
f 96/212/73 31/213/74 97/208/75 160/206/72
f 97/208/75 25/209/76 98/205/77 160/206/72
f 98/205/77 16/202/39 79/201/38 160/206/72
f 79/156/38 8/149/9 64/142/8 160/157/72
f 69/88/19 15/81/18 95/80/71 161/89/78
f 95/80/71 24/87/70 99/97/79 161/89/78
f 99/97/79 28/107/80 100/108/81 161/89/78
f 100/108/81 18/109/45 82/100/44 161/89/78
f 82/100/44 10/98/20 69/88/19 161/89/78
f 101/5/82 30/14/83 102/15/84 162/7/85
f 102/15/84 40/27/86 103/28/87 162/7/85
f 103/28/87 29/40/88 104/29/89 162/7/85
f 104/29/89 19/30/54 86/16/52 162/7/85
f 86/16/52 11/8/36 77/3/35 162/7/85
f 77/3/35 20/2/34 101/5/82 162/7/85
f 105/24/90 32/26/91 106/13/92 163/6/93
f 106/13/92 30/14/83 101/5/82 163/6/93
f 101/5/82 20/2/34 76/1/32 163/6/93
f 76/1/32 13/11/31 91/12/63 163/6/93
f 91/12/63 22/23/62 105/24/90 163/6/93
f 80/203/40 16/202/39 98/205/77 164/207/94
f 98/205/77 25/209/76 107/210/95 164/207/94
f 107/91/95 35/92/96 108/82/97 164/69/94
f 108/82/97 33/83/98 109/75/99 164/69/94
f 109/75/99 23/70/66 92/65/64 164/69/94
f 92/65/64 14/64/42 80/67/40 164/69/94
f 110/237/100 37/240/101 111/241/102 165/239/103
f 111/241/102 36/246/104 112/247/105 165/239/103
f 112/247/105 26/250/60 89/242/59 165/239/103
f 89/242/59 17/243/50 84/236/49 165/239/103
f 84/236/49 27/235/48 110/237/100 165/239/103
f 113/106/106 38/115/107 114/122/108 166/116/109
f 114/122/108 47/124/110 115/125/111 166/116/109
f 115/125/111 37/126/101 110/127/100 166/116/109
f 110/237/100 27/235/48 83/233/46 166/238/109
f 83/117/46 18/109/45 100/108/81 166/116/109
f 100/108/81 28/107/80 113/106/106 166/116/109
f 116/53/112 39/60/113 117/61/114 167/41/115
f 117/223/114 41/220/116 118/214/117 167/217/115
f 118/214/117 31/213/74 96/212/73 167/217/115
f 96/54/73 21/42/56 87/31/55 167/41/115
f 87/31/55 19/30/54 104/29/89 167/41/115
f 104/29/89 29/40/88 116/53/112 167/41/115
f 90/35/61 26/45/60 112/46/105 168/36/118
f 112/247/105 36/246/104 119/253/119 168/254/118
f 119/253/119 46/257/120 120/258/121 168/254/118
f 120/51/121 42/47/122 121/37/123 168/36/118
f 121/37/123 32/26/91 105/24/90 168/36/118
f 105/24/90 22/23/62 90/35/61 168/36/118
f 109/75/99 33/83/98 122/84/124 169/76/125
f 122/84/124 43/93/126 123/94/127 169/76/125
f 123/94/127 44/95/128 124/85/129 169/76/125
f 124/85/129 34/77/68 93/71/67 169/76/125
f 93/71/67 23/70/66 109/75/99 169/76/125
f 124/85/129 44/95/128 125/96/130 170/86/131
f 125/96/130 48/104/132 126/105/133 170/86/131
f 126/105/133 38/115/107 113/106/106 170/86/131
f 113/106/106 28/107/80 99/97/79 170/86/131
f 99/97/79 24/87/70 94/78/69 170/86/131
f 94/78/69 34/77/68 124/85/129 170/86/131
f 97/208/75 31/213/74 118/214/117 171/211/134
f 118/214/117 41/220/116 127/221/135 171/211/134
f 127/221/135 45/222/136 128/215/137 171/211/134
f 128/215/137 35/216/96 107/210/95 171/211/134
f 107/210/95 25/209/76 97/208/75 171/211/134
f 129/38/138 50/50/139 130/52/140 172/39/141
f 130/52/140 49/58/142 131/59/143 172/39/141
f 131/59/143 39/60/113 116/53/112 172/39/141
f 116/53/112 29/40/88 103/28/87 172/39/141
f 103/28/87 40/27/86 129/38/138 172/39/141
f 106/13/92 32/26/91 121/37/123 173/25/144
f 121/37/123 42/47/122 132/48/145 173/25/144
f 132/48/145 51/56/146 133/49/147 173/25/144
f 133/49/147 50/50/139 129/38/138 173/25/144
f 129/38/138 40/27/86 102/15/84 173/25/144
f 102/15/84 30/14/83 106/13/92 173/25/144
f 108/82/97 35/92/96 128/101/137 174/90/148
f 128/215/137 45/222/136 134/227/149 174/228/148
f 134/196/149 53/195/150 135/194/151 174/198/148
f 135/110/151 52/111/152 136/102/153 174/90/148
f 136/102/153 43/93/126 122/84/124 174/90/148
f 122/84/124 33/83/98 108/82/97 174/90/148
f 111/241/102 37/240/101 115/244/111 175/245/154
f 115/244/111 47/251/110 137/252/155 175/245/154
f 137/185/155 55/178/156 138/171/157 175/175/154
f 138/171/157 54/170/158 139/169/159 175/175/154
f 139/256/159 46/257/120 119/253/119 175/245/154
f 119/253/119 36/246/104 111/241/102 175/245/154
f 140/113/160 56/120/161 141/121/162 176/114/163
f 141/179/162 55/178/156 137/185/155 176/186/163
f 137/123/155 47/124/110 114/122/108 176/114/163
f 114/122/108 38/115/107 126/105/133 176/114/163
f 126/105/133 48/104/132 140/113/160 176/114/163
f 142/184/164 57/183/165 143/189/166 177/190/167
f 143/189/166 53/195/150 134/196/149 177/190/167
f 134/196/149 45/199/136 127/200/135 177/190/167
f 127/221/135 41/220/116 117/223/114 177/226/167
f 117/223/114 39/229/113 131/230/143 177/226/167
f 131/197/143 49/191/142 142/184/164 177/190/167
f 120/176/121 46/177/120 139/169/159 178/165/168
f 139/169/159 54/170/158 144/162/169 178/165/168
f 144/162/169 58/163/170 145/164/171 178/165/168
f 145/62/171 51/56/146 132/48/145 178/55/168
f 132/48/145 42/47/122 120/51/121 178/55/168
f 146/112/172 59/118/173 147/119/174 179/103/175
f 147/119/174 56/120/161 140/113/160 179/103/175
f 140/113/160 48/104/132 125/96/130 179/103/175
f 125/96/130 44/95/128 123/94/127 179/103/175
f 123/94/127 43/93/126 136/102/153 179/103/175
f 136/102/153 52/111/152 146/112/172 179/103/175
f 130/52/140 50/50/139 133/49/147 180/57/176
f 133/49/147 51/56/146 145/62/171 180/57/176
f 145/164/171 58/163/170 148/166/177 180/168/176
f 148/166/177 60/173/178 149/174/179 180/168/176
f 149/174/179 57/183/165 142/184/164 180/168/176
f 142/184/164 49/191/142 130/192/140 180/168/176
f 135/194/151 53/195/150 143/189/166 181/180/180
f 143/189/166 57/183/165 149/174/179 181/180/180
f 149/174/179 60/173/178 150/172/181 181/180/180
f 150/172/181 59/182/173 146/188/172 181/180/180
f 146/188/172 52/193/152 135/194/151 181/180/180
f 138/171/157 55/178/156 141/179/162 182/167/182
f 141/179/162 56/187/161 147/181/174 182/167/182
f 147/181/174 59/182/173 150/172/181 182/167/182
f 150/172/181 60/173/178 148/166/177 182/167/182
f 148/166/177 58/163/170 144/162/169 182/167/182
f 144/162/169 54/170/158 138/171/157 182/167/182
